Django>=1.9.3,<1.10
Fabric>=1.8.0
ipython[all]>=1.2.0
django-floppyforms>=1.1
django-braces>=1.2.2
django-model-utils>=1.5.0
bleach>=1.2.2
logutils>=0.3.3
python-ldap>=2.4.14
django-ratelimit>=0.4.0
django-secure>=1.0
django-nocaptcha-recaptcha>=0.0.18
django-autocomplete-light==2.2.10
python-social-auth>=0.2.12
certifi>=2016.2.28
